…
There are 465 distinct stations. There are 84 ADA compliant stations. The proportion of station entrances/exits without vending that allow entrance is 1. Thus, all station/entrances/exits without vending allow entrance.

Reformat data so that route number and route name are distinct variables.

``` r
transit_data_reformat = 
  transit_data %>%
  gather(key = route_number, value=route_name, route1:route11)

select(transit_data_reformat, route_name, station_name, line) %>% 
  filter(route_name == "A") %>% 
  distinct(line, station_name)
```

    ## # A tibble: 60 x 2
    ##    station_name                  line           
    ##    <chr>                         <chr>          
    ##  1 Times Square                  42nd St Shuttle
    ##  2 125th St                      8 Avenue       
    ##  3 145th St                      8 Avenue       
    ##  4 14th St                       8 Avenue       
    ##  5 168th St - Washington Heights 8 Avenue       
    ##  6 175th St                      8 Avenue       
    ##  7 181st St                      8 Avenue       
    ##  8 190th St                      8 Avenue       
    ##  9 34th St                       8 Avenue       
    ## 10 42nd St                       8 Avenue       
    ## # ... with 50 more rows
…
